^D:\!STUDY\UE4\МОДУЛЬ 11\CONSOLEAPPLICATION1\CONSOLEAPPLICATION1.CPP
D:\!STUDY\UE4\Модуль 11\CONSOLEAPPLICATION1\RELEASE\VC142.PDB
D:\!STUDY\UE4\Модуль 11\CONSOLEAPPLICATION1\RELEASE\CONSOLEAPPLICATION1.OBJ
