^D:\!STUDY\UE4\МОДУЛЬ 11\CONSOLEAPPLICATION1\RELEASE\CONSOLEAPPLICATION1.OBJ
D:\!STUDY\UE4\Модуль 11\CONSOLEAPPLICATION1\RELEASE\CONSOLEAPPLICATION1.EXE
D:\!STUDY\UE4\МОДУЛЬ 11\CONSOLEAPPLICATION1\RELEASE\CONSOLEAPPLICATION1.PDB
